batch_size: 100
c: 10
discount: 0.8
discount_h: 0.99
env_name: DoomGridworldGather-v0
episode_length: 500
eval_freq: 1000.0
expl_noise: 0.2
expl_noise_h: 0.2
filename_extension: high_fixed
lr_actor: 0.001
lr_actor_h: 0.001
lr_critic: 0.0001
lr_critic_h: 0.001
max_timesteps: 50000.0
noise_clip: 0.5
num_episodes: 50
policy_freq: 2
policy_noise: 0.2
policy_noise_h: 0.2
save_models: True
seed: 0
start_timesteps: 3000
tau: 0.005
